{
  "id": "sraseason",
  "title": "Shadowrun Anarchy Season",
  "description": "The Shadowrun Anarchy system by Season Team for FoundryVTT!",
  "authors": [
    {
      "name": "Hasyame",
      "discord": "hasyame"
    }
  ],
  "url": "https://gitlab.com/hasyame/sraseason/",
  "license": "LICENSE.txt",
  "readme": "README.md",
  "bugs": "https://gitlab.com/hasyame/sraseason/-/issues",
  "download": "https://gitlab.com/hasyame/sraseason/-/archive/main/sraseason-main.zip",
  "changelog": "CHANGELOG.md",
  "media": [
    {
      "type": "setup",
      "url": "systems/boilerplate/assets/anvil-impact.png",
      "thumbnail": "systems/boilerplate/assets/anvil-impact.png"
    }
  ],
  "version": "0.1.0",
  "compatibility": {
    "minimum": 11,
    "verified": "11.315"
  },
  "esmodules": ["module/boilerplate.mjs"],
  "styles": ["css/boilerplate.css"],
  "languages": [
    {
      "lang": "en",
      "name": "English",
      "path": "lang/en.json"
    }
  ],
  "packs": [],
  "packFolders": [],
  "socket": false,
  "manifest": "Replace this with a link to the /latest release system.json so people can receive updates after they've installed the system",
  "download": "This must link to a .zip file of the current version",
  "background": "systems/boilerplate/assets/anvil-impact.png",
  "gridDistance": 5,
  "gridUnits": "ft",
  "primaryTokenAttribute": "health",
  "secondaryTokenAttribute": "power"
}
